<svg width="19" height="22" viewBox="0 0 19 22" fill="none" xmlns="http://www.w3.org/2000/svg">
<path d="M6.18233 2.2746C6.74052 1.55794 7.65118 1.02166 9.06192 1H9.06202H9.06451H9.067H9.06949H9.07199H9.07448H9.07697H9.07946H9.08195H9.08444H9.08693H9.08942H9.09191H9.0944H9.09689H9.09938H9.10187H9.10437H9.10686H9.10935H9.11184H9.11433H9.11682H9.11931H9.1218H9.12429H9.12678H9.12927H9.13176H9.13425H9.13675H9.13924H9.14173H9.14422H9.14671H9.1492H9.15169H9.15418H9.15667H9.15916H9.16165H9.16414H9.16663H9.16913H9.17162H9.17411H9.1766H9.17909H9.18158H9.18407H9.18656H9.18905H9.19154H9.19403H9.19652H9.19901H9.2015H9.20399H9.20649H9.20898H9.21147H9.21396H9.21645H9.21894H9.22143H9.22392H9.22641H9.2289H9.23139H9.23388H9.23637H9.23886H9.24135H9.24385H9.24634H9.24883H9.25132H9.25381H9.2563H9.25879H9.26128H9.26377H9.26626H9.26875H9.27124H9.27373H9.27622H9.27871H9.28121H9.2837H9.28619H9.28868H9.29117H9.29366H9.29615H9.29864H9.30113H9.30362H9.30611H9.3086H9.31109H9.31358H9.31607H9.31856H9.32106H9.32355H9.32604H9.32853H9.33102H9.33351H9.336H9.33849H9.34098H9.34347H9.34596H9.34845H9.35094H9.35343H9.35592H9.35841H9.3609H9.3634H9.36589H9.36838H9.37087H9.37336H9.37585H9.37834H9.38083H9.38332H9.38581H9.3883H9.39079H9.39328H9.39577H9.39826H9.40075H9.40324H9.40574H9.40823H9.41072H9.41321H9.4157H9.41819H9.42068H9.42317H9.42566H9.42815H9.43064H9.43313H9.43562H9.43811H9.4406H9.44309H9.44558H9.44807H9.45056H9.45306H9.45555H9.45804H9.46053H9.46302H9.46551H9.468H9.47049H9.47298H9.47547H9.47796H9.48045H9.48294H9.48543H9.48792H9.49041H9.4929H9.49539H9.49788H9.50038H9.50287H9.50536H9.50785H9.51034H9.51283H9.51532H9.51781H9.5203H9.52279H9.52528H9.52777H9.53026H9.53275H9.53524H9.53773H9.54022H9.54271H9.5452H9.5477H9.55019H9.55268H9.55517H9.55766H9.56015H9.56264H9.56513H9.56762H9.57011H9.5726H9.57509H9.57758H9.58007H9.58256H9.58505H9.58754H9.59003H9.59252H9.59501H9.59751H9.6H9.60249H9.60498H9.60747H9.60996H9.61245H9.61494H9.61743H9.61992H9.62241H9.6249H9.62739H9.62988H9.63237H9.63486H9.63735H9.63984H9.64233H9.64482H9.64732H9.64981H9.6523H9.65479H9.65728H9.65977H9.66226H9.66475H9.66724H9.66973H9.67222H9.67471H9.6772H9.67969H9.68218H9.68467H9.68716H9.68965H9.69214H9.69463H9.69712H9.69962H9.70211H9.7046H9.70709H9.70958H9.71207H9.71456H9.71705H9.71954H9.72203H9.72452H9.72701H9.7295H9.73199H9.73448H9.73697H9.73946H9.74195H9.74444H9.74693H9.74942H9.75192H9.75441H9.7569H9.75939H9.76188H9.76437H9.76686H9.76935H9.77184H9.77433H9.77682H9.77931H9.7818H9.78429H9.78678H9.78927H9.79176H9.79425H9.79674H9.79923H9.80173H9.80422H9.80671H9.8092H9.81169H9.81418H9.81667H9.81916H9.82165H9.82414H9.82663H9.82912H9.83161H9.8341H9.83659H9.83908H9.84157H9.84406H9.84655H9.84904H9.85154H9.85403H9.85652H9.85901H9.8615H9.86399H9.86648H9.86897H9.87146H9.87395H9.87644H9.87893H9.88142H9.88391H9.8864H9.88889H9.89138H9.89387H9.89636H9.89886H9.90135H9.90384H9.90633H9.90882H9.91131H9.9138H9.91629H9.91878H9.92127H9.92376H9.92625H9.92874H9.93123H9.93372H9.93621H9.9387H9.94119H9.94368H9.94618H9.94867H9.95116H9.95365H9.95614H9.95863H9.96112H9.96361H9.9661H9.96859H9.97108H9.97357H9.97606H9.97855H9.98104H9.98353H9.98602H9.98851H9.99101H9.9935H9.99599H9.99848H10.001H10.0035H10.0059H10.0084H10.0109H10.0134H10.0159H10.0184H10.0209H10.0234H10.0259H10.0284H10.0309H10.0333H10.0358H10.0383H10.0408H10.0433H10.0458H10.0483H10.0508H10.0533H10.0558H10.0583H10.0607H10.0632H10.0657H10.0682H10.0707H10.0732H10.0757H10.0782H10.0807H10.0832H10.0856H10.0881H10.0906H10.0931H10.0956H10.0981H10.1006H10.1031H10.1056H10.1081H10.1106H10.113H10.1155H10.118H10.1205H10.123H10.1255H10.128H10.1305H10.133H10.1355H10.138H10.1404H10.1429H10.1454H10.1479H10.1504H10.1529H10.1554H10.1579H10.1604H10.1629H10.1653H10.1678H10.1703H10.1728H10.1753H10.1778H10.1803H10.1828H10.1853H10.1878H10.1903H10.1927H10.1952H10.1977H10.2002H10.2027H10.2052H10.2077H10.2102H10.2127H10.2152H10.2177H10.2201H10.2226H10.2251H10.2276H10.2301H10.2326H10.2351H10.2376H10.2401H10.2426H10.2451H10.2475H10.25H10.2525H10.255H10.2575H10.26H10.2625H10.265H10.2675H10.27H10.2724H10.2749H10.2774H10.2799H10.2824H10.2849H10.2874H10.2899H10.2924H10.2949H10.2974H10.2998H10.3023H10.3048H10.3073H10.3088C11.7972 1.06486 12.7285 1.63521 13.2801 2.36247C13.8528 3.11749 14.0971 4.15029 13.9827 5.23851C13.7498 7.45367 12.1267 9.44954 9.64436 9.42426C7.11867 9.39853 5.58103 7.37027 5.41383 5.14868C5.33139 4.05329 5.60257 3.01894 6.18233 2.2746Z" stroke="white" stroke-width="2"/>
<path d="M1.95544 14.1301L1.95542 14.1301C1.56796 14.6104 1.34393 15.3874 1.18255 16.9565C1.15805 17.1949 1.13225 17.3989 1.10742 17.5953C1.07651 17.8398 1.04711 18.0723 1.02358 18.3443C1.00503 18.5588 0.996897 18.7405 1.00106 18.8883C1.00311 18.961 1.00797 19.0177 1.01398 19.0603C1.01693 19.0812 1.01989 19.0968 1.02232 19.1077C1.02403 19.1153 1.0253 19.1198 1.02583 19.1216C1.02758 19.1255 1.05104 19.1773 1.1541 19.2687C1.26901 19.3706 1.44724 19.4897 1.70169 19.6165C2.21277 19.8713 2.91428 20.1005 3.7234 20.2943C5.32607 20.678 7.17117 20.8811 8.34303 20.9302H8.34496H8.34947H8.35398H8.35849H8.363H8.36751H8.37202H8.37652H8.38103H8.38554H8.39005H8.39456H8.39907H8.40358H8.40809H8.41259H8.4171H8.42161H8.42612H8.43063H8.43514H8.43965H8.44416H8.44866H8.45317H8.45768H8.46219H8.4667H8.47121H8.47572H8.48023H8.48473H8.48924H8.49375H8.49826H8.50277H8.50728H8.51179H8.5163H8.5208H8.52531H8.52982H8.53433H8.53884H8.54335H8.54786H8.55237H8.55687H8.56138H8.56589H8.5704H8.57491H8.57942H8.58393H8.58844H8.59294H8.59745H8.60196H8.60647H8.61098H8.61549H8.62H8.62451H8.62901H8.63352H8.63803H8.64254H8.64705H8.65156H8.65607H8.66058H8.66508H8.66959H8.6741H8.67861H8.68312H8.68763H8.69214H8.69665H8.70115H8.70566H8.71017H8.71468H8.71919H8.7237H8.72821H8.73272H8.73722H8.74173H8.74624H8.75075H8.75526H8.75977H8.76428H8.76879H8.77329H8.7778H8.78231H8.78682H8.79133H8.79584H8.80035H8.80486H8.80936H8.81387H8.81838H8.82289H8.8274H8.83191H8.83642H8.84093H8.84543H8.84994H8.85445H8.85896H8.86347H8.86798H8.87249H8.877H8.8815H8.88601H8.89052H8.89503H8.89954H8.90405H8.90856H8.91306H8.91757H8.92208H8.92659H8.9311H8.93561H8.94012H8.94463H8.94913H8.95364H8.95815H8.96266H8.96717H8.97168H8.97619H8.9807H8.9852H8.98971H8.99422H8.99873H9.00324H9.00775H9.01226H9.01677H9.02127H9.02578H9.03029H9.0348H9.03931H9.04382H9.04833H9.05284H9.05734H9.06185H9.06636H9.07087H9.07538H9.07989H9.0844H9.08891H9.09341H9.09792H9.10243H9.10694H9.11145H9.11596H9.12047H9.12498H9.12948H9.13399H9.1385H9.14301H9.14752H9.15203H9.15654H9.16105H9.16555H9.17006H9.17457H9.17908H9.18359H9.1881H9.19261H9.19712H9.20162H9.20613H9.21064H9.21515H9.21966H9.22417H9.22868H9.23319H9.23769H9.2422H9.24671H9.25122H9.25573H9.26024H9.26475H9.26926H9.27376H9.27827H9.28278H9.28729H9.2918H9.29631H9.30082H9.30533H9.30983H9.31434H9.31885H9.32336H9.32787H9.33238H9.33689H9.3414H9.3459H9.35041H9.35492H9.35943H9.36394H9.36845H9.37296H9.37747H9.38197H9.38648H9.39099H9.3955H9.40001H9.40452H9.40903H9.41354H9.41804H9.42255H9.42706H9.43157H9.43608H9.44059H9.4451H9.4496H9.45411H9.45862H9.46313H9.46764H9.47215H9.47666H9.48117H9.48567H9.49018H9.49469H9.4992H9.50371H9.50822H9.51273H9.51724H9.52174H9.52625H9.53076H9.53527H9.53978H9.54429H9.5488H9.55331H9.55781H9.56232H9.56683H9.57134H9.57585H9.58036H9.58487H9.58938H9.59388H9.59839H9.6029H9.60741H9.61192H9.61643H9.62094H9.62545H9.62995H9.63446H9.63897H9.64348H9.64799H9.6525H9.65701H9.66152H9.66602H9.67053H9.67504H9.67955H9.68406H9.68857H9.69308H9.69759H9.70209H9.7066H9.71111H9.71562H9.72013H9.72464H9.72915H9.73366H9.73816H9.74267H9.74718H9.75169H9.7562H9.76071H9.76522H9.76973H9.77423H9.77874H9.78325H9.78776H9.79227H9.79678H9.80129H9.8058H9.8103H9.81481H9.81932H9.82383H9.82834H9.83285H9.83736H9.84187H9.84637H9.85088H9.85539H9.8599H9.86441H9.86892H9.87343H9.87794H9.88244H9.88695H9.89146H9.89597H9.90048H9.90499H9.9095H9.91401H9.91851H9.92302H9.92753H9.93204H9.93655H9.94106H9.94557H9.95008H9.95458H9.95909H9.9636H9.96811H9.97262H9.97713H9.98164H9.98615H9.99065H9.99516H9.99967H10.0042H10.0087H10.0132H10.0177H10.0222H10.0267H10.0312H10.0357H10.0402H10.0448H10.0493H10.0538H10.0583H10.0628H10.0673H10.0718H10.0763H10.0808H10.0853H10.0898H10.0944H10.0989H10.1034H10.1079H10.1124H10.1169H10.1214H10.1259H10.1304H10.1349H10.1394H10.144H10.1485H10.153H10.1575H10.162H10.1665H10.171H10.1755H10.18H10.1845H10.189H10.1935H10.1981H10.2026H10.2071H10.2116H10.2161H10.2206H10.2251H10.2296H10.2341H10.2386H10.2431H10.2477H10.2522H10.2567H10.2612H10.2657H10.2702H10.2747H10.2792H10.2837H10.2882H10.2927H10.2972H10.3018H10.3063H10.3108H10.3153H10.3198H10.3243H10.3288H10.3333H10.3378H10.3423H10.3468H10.3514H10.3559H10.3604H10.3649H10.3694H10.3739H10.3784H10.3829H10.3874H10.3919H10.3964H10.4009H10.4055H10.41H10.4145H10.419H10.4235H10.428H10.4325H10.437H10.4415H10.446H10.4505H10.4551H10.4596H10.4641H10.4686H10.4731H10.4776H10.4821H10.4866H10.4911H10.4956H10.5001H10.5047H10.5092H10.5137H10.5182H10.5227H10.5272H10.5317H10.5362H10.5407H10.5452H10.5497H10.5542H10.5588H10.5633H10.5678H10.5723H10.5768H10.5813H10.5858H10.589C11.7553 20.8322 13.5852 20.6694 15.1923 20.3193C16.0091 20.1414 16.7147 19.926 17.2287 19.6738C17.782 19.4022 17.9055 19.1908 17.9221 19.1381C17.9684 18.9921 17.9777 18.6592 17.906 18.0966C17.8732 17.8396 17.8298 17.5741 17.7846 17.3L17.7811 17.2783C17.7384 17.0193 17.6934 16.7457 17.663 16.4967L17.663 16.4967C17.549 15.5639 17.371 14.9054 17.0928 14.4109C16.8301 13.9439 16.4458 13.566 15.8003 13.2524L15.8002 13.2524C15.403 13.0594 14.7523 12.8233 14.0861 12.6437C13.3884 12.4556 12.8318 12.3733 12.5739 12.3925L12.5737 12.3925C12.5075 12.3974 12.3618 12.4475 12.0151 12.633C11.9868 12.6481 11.9553 12.6653 11.9212 12.6839C11.661 12.8259 11.2423 13.0545 10.8372 13.1399L1.95544 14.1301ZM1.95544 14.1301C2.03386 14.0329 2.2503 13.8459 2.6413 13.6102C3.01121 13.3872 3.47022 13.1604 3.96067 12.9619C4.99361 12.5439 5.95622 12.3353 6.45588 12.3894L6.45592 12.3894C6.68822 12.4146 6.86142 12.4944 7.10058 12.6342C7.12515 12.6486 7.15372 12.666 7.18594 12.6856C7.40611 12.8196 7.79649 13.0571 8.24265 13.1432L1.95544 14.1301ZM8.24278 13.1433C9.08881 13.3067 9.85281 13.3474 10.8371 13.1399L8.24278 13.1433Z" stroke="white" stroke-width="2"/>
</svg>
