<!-- Generated by IcoMoon.io -->
<svg version="1.1" xmlns="http://www.w3.org/2000/svg" width="512" height="512" viewBox="0 0 512 512">
<title></title>
<g id="icomoon-ignore">
</g>
<path d="M36.242 417.379c-4.392-2.312-7.9-5.986-10.552-11.055-2.063-3.942-2.448-5.902-2.48-12.603-0.032-6.849 0.32-8.666 2.579-13.264 1.489-3.032 4.169-6.558 6.218-8.18 7.656-6.064-9.608-5.637 224.449-5.558 160.558 0.053 213.708 0.341 215.949 1.167 6.101 2.25 11.164 6.764 13.942 12.429 2.289 4.671 2.677 6.565 2.647 12.94-0.053 11.396-4.442 19.616-12.756 23.892-3.38 1.738-8.726 1.781-220.328 1.744-195.726-0.034-217.138-0.181-219.666-1.511zM39.805 287.92c-6.096-2.248-11.165-6.764-13.947-12.429-2.346-4.779-2.678-6.476-2.619-13.407 0.056-6.626 0.465-8.706 2.48-12.603 2.843-5.498 6.154-8.774 11.924-11.8l4.202-2.203h285.68l4.454 2.213c9.94 4.938 15.333 15.113 14.462 27.289-0.771 10.777-8.14 20.659-17.305 23.204-5.24 1.455-285.36 1.202-289.329-0.262zM41.209 145.020c-8.581-2.321-15.766-10.080-17.625-19.035-2.736-13.181 2.874-26.335 13.355-31.308 3.083-1.463 18.611-1.575 219.109-1.575 212.532 0 215.845 0.028 219.38 1.831 4.915 2.507 9.334 7.13 11.63 12.162 2.955 6.483 2.668 18.481-0.595 24.834-2.702 5.261-7.666 10.085-12.762 12.403-3.044 1.385-21.904 1.532-215.729 1.692-168.817 0.139-213.29-0.067-216.762-1.006z"></path>
</svg>
