<!-- Generated by IcoMoon.io -->
<svg version="1.1" xmlns="http://www.w3.org/2000/svg" width="512" height="512" viewBox="0 0 512 512">
<title></title>
<g id="icomoon-ignore">
</g>
<path d="M439.346 298.032c-17.12-5.373-41.952-7.202-54.318-16.683-10.168-7.844-15.103-29.569-21.555-45.588-14.384-35.621-26.411-58.493-43.211-91.253-8.65-16.837-22.615-32.156-24.113-45.139-2.118-18.453 3.736-45.899 5.034-67.174-0.26-0.993-0.42-1.694-0.479-2.414 0-0.331 0-0.448 0-0.759-0.12-0.078-0.26-0.175-0.34-0.468-0.978-1.46-1.918-3.056-2.797-4.613-3.316-2.277-6.493-4.477-9.61-6.774-2.397 0-4.654-0.486-6.852-1.168-32.763 1.908-59.053 15.611-68.782 49.928-14.024 49.831 23.194 91.603 8.351 141.279-62.35-16.292-117.907-20.632-145.616 23.183-1.478 5.022-2.957 10.024-4.435 15.065-3.017 17.5 5.234 33.597 7.391 45.238-22.055 18.043-18 54.736 5.275 64.469-12.246 30.755 0 48.059 26.63 57.442-23.374 41.071 35.899 66.823 72.379 60.791 20.018 10.92 42.133 22.365 61.791 22.599 15.422 0.312 39.256-9.44 53.56-15.611 13.924-5.839 37.178-24.214 48.885-23.884 16.062 0.196 29.687 9.363 44.329 12.829 3.116-1.557 6.753-2.492 11.108-2.609 13.365-17.461 24.791-38.17 34.841-61.451 2.677-9.46 5.413-18.804 8.151-28.128 4.055-25.888 4.815-49.83 1.438-71.572-2.997-1.928-5.354-4.536-7.052-7.533zM82.907 323.59c-0.54-8 3.796-12.146 8.671-17.442 17.36 9.927 36.718 20.847 60.272 23.474 20.436 2.162 44.81-9.81 62.43-8.642 10.648 7.923 23.194 19.446 22.355 30.678-10.748 0.175-23.214 2.998-37.418 4.905-10.448 1.382-26.031 6.053-37.379 4.964-30.146-2.784-77.733-19.873-78.931-37.937zM100.188 363.318c23.233 3.328 39.435 14.618 57.455 16.914 16.741 2.024 47.867-9.284 65.986-8.798 7.791 7.3 14.005 15.436 18.079 24.78-10.788 2.822-24.632 4.515-39.116 6.774-12.726 1.966-28.828 6.483-39.916 5.43-31.264-2.784-73.078-17.694-62.49-45.1zM168.791 457.976c-25.191-1.907-50.184-16.351-41.413-39.358 39.715 15.904 62.91 3.251 92.036 0.798 7.911 7.767 11.127 18.102 16.001 27.661-14.583-0.020-49.264 12.3-66.625 10.9zM391.779 449.082c-20.017-2.024-31.505-13.743-48.785-13.411-5.454 0.097-16.621 8.896-24.173 13.314-9.229 5.12-17.5 10.084-24.233 13.159-25.811 11.854-48.046 26.064-83.865 8.507 15.262-4.204 32.163-5.723 48.885-7.63 0.679-18.551-13.565-33.851-16.181-47.573 5.254-0.293 10.249-1.012 15.222-1.888 0.42-1.654 1.119-3.251 2.058-4.789 0.26-0.466 0.639-0.896 0.88-1.265 0.519-1.926 1.239-3.64 2.157-5.527-3.596-12.634-10.488-23.671-17.201-34.805 4.915 0.584 9.070-0.175 13.145-1.226 0.24-1.226 0.719-2.433 1.259-3.563-2.916-17.44-9.729-32.507-23.014-44.206 2.537-3.25 8.051-1.478 11.747-2.841 0.040-1.635 0.14-3.134 0.48-4.711-5.974-32.274-23.694-56.644-62.57-63.476-18.559-3.154-41.254 3.912-66.345-6.385 0.819 5.47 6.813 16.156 11.268 22.892 21.077 6.736 42.432-2.589 62.67 3.172 17.56 4.846 25.77 15.728 32.603 32.254-11.927 4.067-24.532 4.067-37.657 5.976-12.127 1.731-25.991 7.144-37.698 6.132-48.026-4.498-75.455-43.33-57.874-77.823 1.219-2.492 5.493-7.689 8.99-10.375 29.427-22.56 80.070-3.349 131.891 8.097 10.468-30.657 10.808-58.745 5.095-88.469-5.754-30.716-27.329-75.019 11.666-98.455 7.312-4.34 16.741-5.801 28.448-7.397 4.295 20.652-6.613 46.639-3.197 69.257 2.058 12.653 16.301 31.942 24.632 47.515 18.299 34.239 29.567 57.714 45.269 96.527 6.333 15.806 14.404 38.404 24.952 46.445 13.565 10.452 40.255 14.306 56.476 20.283 4.455 40-11.348 99.447-36.998 132.285z"></path>
</svg>
