<!-- Generated by IcoMoon.io -->
<svg version="1.1" xmlns="http://www.w3.org/2000/svg" width="512" height="512" viewBox="0 0 512 512">
<title></title>
<g id="icomoon-ignore">
</g>
<path d="M244.297 491.154c6.464 6.462 16.944 6.462 23.407 0l105.334-105.336c6.464-6.465 6.464-16.946 0-23.408-6.464-6.465-16.944-6.465-23.408 0l-93.63 93.63-93.63-93.63c-6.464-6.465-16.944-6.465-23.408 0-6.464 6.462-6.464 16.942 0 23.408l105.334 105.336zM239.448 16v463.448h33.104v-463.448h-33.103z"></path>
</svg>
