<!-- Generated by IcoMoon.io -->
<svg version="1.1" xmlns="http://www.w3.org/2000/svg" width="512" height="512" viewBox="0 0 512 512">
<title></title>
<g id="icomoon-ignore">
</g>
<path d="M392.722 460.297c-1.711-0.42-12.479-7.984-46.367-32.572-7.14-5.18-20.911-15.13-30.603-22.11s-21.572-15.619-26.402-19.198c-8.53-6.319-15.178-9.24-19.203-8.433-0.929 0.186-2.74 0.555-4.026 0.822-2.349 0.486-6.274 3.378-22.337 16.459-50.264 40.934-46.647 38.315-52.925 38.315-8.663 0-11.47-3.063-15.685-17.125-1.147-3.825-3.431-11.128-5.077-16.228s-4.322-13.655-5.948-19.010c-3.719-12.248-3.834-12.62-8.764-28.284-2.248-7.14-5.375-17.156-6.951-22.256s-3.702-11.986-4.726-15.301c-4.411-14.274-7.42-23.349-8.261-24.921-0.496-0.928-2.696-2.342-4.887-3.144s-11.496-4.276-20.677-7.719c-9.18-3.443-18.362-6.848-20.401-7.565s-12.681-4.632-23.647-8.7c-10.966-4.069-22.129-8.21-24.806-9.203-13.076-4.852-15.721-5.962-18.084-7.592-1.403-0.968-2.55-2.565-2.55-3.551s-0.417-1.792-0.927-1.792c-0.51 0-0.927-2.296-0.927-5.101s0.417-5.101 0.927-5.101c0.51 0 0.927-0.818 0.927-1.819 0-4 3.347-5.51 60.741-27.401 28.222-10.764 42.233-16.163 46.831-18.046 2.296-0.94 8.346-3.232 13.447-5.093s10.108-3.746 11.129-4.189c1.020-0.442 9.157-3.591 18.083-7s22.488-8.615 30.138-11.572c7.65-2.957 19.126-7.321 25.502-9.698s12.427-4.683 13.446-5.123c1.020-0.44 10.201-4.006 20.401-7.923 27.801-10.678 51.464-19.791 74.188-28.573 11.221-4.337 28.748-11.073 38.949-14.971 27.159-10.377 31.32-11.972 43.586-16.715 6.12-2.366 14.466-5.563 18.547-7.103s8.253-3.139 9.274-3.553c24.58-9.967 30.485-11.638 38.284-10.833 5.341 0.551 8.548 2.582 8.548 5.414 0 0.941 0.417 1.711 0.927 1.711s0.927 2.27 0.927 5.045c0 2.776-0.417 5.303-0.927 5.619s-0.927 2.209-0.927 4.209c0 3.587-2.059 15.901-3.715 22.221-0.468 1.785-1.738 7.627-2.822 12.983s-2.354 11.406-2.823 13.447c-0.469 2.040-1.218 5.587-1.664 7.882-0.925 4.755-3.353 16.864-5.298 26.429-3.466 17.048-5.13 24.978-7.398 35.239-2.38 10.769-2.779 12.683-4.93 23.647-0.55 2.805-1.839 9.065-2.862 13.91s-2.682 12.774-3.685 17.619c-2.231 10.78-6.091 29.128-8.485 40.34-0.981 4.59-2.233 10.642-2.784 13.447-2.008 10.233-2.503 12.688-4.397 21.793-1.060 5.101-3.034 14.281-4.387 20.401-2.38 10.769-2.779 12.683-4.93 23.647-0.55 2.805-1.799 8.856-2.775 13.447s-2.642 12.519-3.703 17.62c-4.087 19.643-6.819 32.601-7.624 36.166-0.461 2.040-1.253 5.796-1.761 8.346s-1.293 6.455-1.746 8.678c-0.995 4.883-3.657 8.676-6.684 9.522-2.579 0.721-11.562 0.81-14.291 0.139zM192.826 373.849c1.613-1.021 3.73-7.716 3.75-11.86 0.007-1.649 0.459-6.030 1.004-9.737s1.357-9.452 1.805-12.769c3.458-25.543 4.891-28.117 26.529-47.637 5.162-4.657 25.548-23.49 45.301-41.852s39.611-36.723 44.129-40.803c4.518-4.080 15.569-14.304 24.557-22.72s19.543-18.185 23.454-21.711c15.19-13.69 26.123-24.572 26.123-26.002 0-0.822-0.577-1.716-1.283-1.987-1.034-0.397-21.185 11.249-38.594 22.303-1.785 1.134-21.19 13.027-43.121 26.43s-41.337 25.317-43.121 26.477c-1.785 1.16-9.923 6.184-18.084 11.163s-20.888 12.782-28.284 17.338c-7.395 4.556-20.463 12.571-29.038 17.814s-17.076 10.943-18.889 12.669c-6.903 6.57-7.474 13.161-2.593 29.936 1.796 6.173 3.722 12.893 4.28 14.933s1.335 4.753 1.727 6.028c0.392 1.275 1.226 4.197 1.855 6.491s1.469 5.216 1.867 6.491c0.399 1.275 1.42 4.822 2.27 7.882s2.341 8.276 3.315 11.591c0.973 3.315 2.449 8.469 3.28 11.453 1.375 4.939 3.96 8.971 5.73 8.935 0.382-0.008 1.298-0.395 2.033-0.861z"></path>
<path d="M393.649 460.288c-1.020-0.255-2.063-0.774-2.318-1.154s-9.644-7.353-20.865-15.495c-27.813-20.183-57.94-41.983-66.113-47.84-3.719-2.666-10.223-7.415-14.452-10.554-10.892-8.083-17.397-10.033-24.728-7.41-1.807 0.646-11.995 8.243-22.641 16.884-49.042 39.8-48.006 39.082-54.395 37.804-3.518-0.704-8.925-5.905-9.732-9.363-0.325-1.393-1.792-6.24-3.258-10.769s-2.668-8.813-2.668-9.518c0-0.704-0.39-2.005-0.867-2.892-1.212-2.251-9.334-27.963-9.334-29.548 0-0.714-0.381-2.023-0.847-2.909s-2.185-5.992-3.82-11.348c-4.995-16.363-7.48-24.344-9.237-29.675-0.925-2.805-2.559-8.022-3.63-11.591-7.615-25.375-7.754-25.734-10.4-27.118-1.213-0.635-8.463-3.483-16.114-6.33s-17.040-6.358-20.865-7.803c-17.535-6.622-34.973-12.998-35.551-12.998-0.349 0-2.404-0.785-4.566-1.745s-5.184-2.184-6.714-2.721c-23.7-8.311-30.139-11.553-30.139-15.171 0-0.931-0.417-1.693-0.927-1.693s-0.927-1.878-0.927-4.173c0-2.296 0.347-4.173 0.771-4.173s1.319-1.024 1.988-2.275c1.348-2.518 6.677-5.323 18.57-9.778 4.335-1.624 10.992-4.206 14.793-5.738s9.851-3.821 13.446-5.085c3.594-1.265 8.305-3.103 10.468-4.085s4.339-1.786 4.838-1.786c0.499 0 2.276-0.617 3.951-1.37s9.514-3.84 17.419-6.859c7.906-3.018 21.486-8.244 30.176-11.613s16.103-6.124 16.471-6.124c0.368 0 2.437-0.786 4.599-1.748s6.226-2.596 9.031-3.632c2.805-1.036 12.212-4.631 20.904-7.989s16.103-6.105 16.471-6.105c0.368 0 2.437-0.796 4.599-1.768s10.19-4.144 17.841-7.049c7.65-2.904 15.162-5.834 16.692-6.511s4.869-1.915 7.418-2.751c2.55-0.836 5.888-2.077 7.418-2.756s7.372-2.988 12.983-5.131c5.611-2.143 18.338-7.034 28.284-10.87s21.422-8.227 25.502-9.756c4.080-1.528 9.188-3.564 11.35-4.524s4.249-1.737 4.637-1.73c0.387 0.007 4.252-1.414 8.588-3.159s10.387-4.094 13.447-5.221c3.060-1.126 7.333-2.835 9.495-3.796s4.249-1.749 4.637-1.751c0.387-0.001 7.591-2.713 16.007-6.025s15.619-6.025 16.007-6.025c0.387-0.001 2.474-0.794 4.637-1.763s10.19-4.136 17.841-7.040c7.651-2.904 15.162-5.838 16.692-6.519s4.868-1.923 7.418-2.761c2.55-0.837 6.406-2.328 8.568-3.313s4.249-1.794 4.637-1.797c0.387-0.003 1.957-0.707 3.488-1.564 1.836-1.028 5.015-1.578 9.35-1.617 6.171-0.055 6.716 0.11 9.012 2.723 1.344 1.53 2.457 3.303 2.474 3.941s0.447 1.16 0.957 1.16c1.15 0 1.24 8.043 0.098 8.749-0.456 0.282-1.025 2.080-1.264 3.995s-1.582 8.7-2.983 15.076c-1.401 6.376-2.88 13.261-3.287 15.301s-1.194 6.005-1.75 8.81c-0.556 2.805-1.432 6.978-1.946 9.273s-1.3 6.051-1.748 8.346c-3.45 17.723-10.046 49.381-11.207 53.786-0.471 1.785-1.082 4.706-1.36 6.492s-0.928 5.124-1.445 7.418c-1.113 4.945-2.562 11.837-3.702 17.619-0.452 2.296-1.092 5.425-1.421 6.955s-1.647 7.998-2.928 14.374c-1.281 6.375-2.952 14.095-3.713 17.156s-1.764 7.65-2.229 10.201c-0.465 2.55-1.281 6.723-1.812 9.274s-1.354 6.723-1.829 9.274c-0.476 2.55-1.664 8.393-2.642 12.983-5.853 27.48-8.771 41.296-9.495 44.976-0.452 2.296-1.265 6.051-1.808 8.346s-1.38 6.26-1.861 8.81c-2.026 10.745-5.019 25.247-7.85 38.021-2.673 12.062-3.26 14.865-5.918 28.284-0.556 2.805-1.43 6.978-1.943 9.274s-1.348 6.26-1.854 8.81c-0.507 2.55-1.284 6.406-1.726 8.568-0.969 4.741-4.494 10.15-7.066 10.841-2.219 0.596-9.445 0.507-12.074-0.15zM193.8 374.728c1.928-1.031 3.008-5.589 4.617-19.478 0.98-8.457 1.625-13.162 3.751-27.356 0.535-3.57 2.187-8.998 3.671-12.062 2.982-6.156 7.923-11.211 38.971-39.869 9.946-9.18 21.645-20.030 25.998-24.111s15.412-14.339 24.575-22.794c9.163-8.457 25.632-23.69 36.598-33.851s24.737-22.826 30.603-28.143c12.308-11.157 27.406-25.536 28.252-26.906 0.909-1.471-1.24-4.688-3.132-4.688-0.938 0-13.339 7.155-27.556 15.901s-30.022 18.399-35.123 21.45c-5.101 3.052-12.404 7.527-16.228 9.945s-20.1 12.447-36.166 22.285c-16.067 9.839-34.637 21.222-41.267 25.297s-13.934 8.541-16.228 9.925c-24.008 14.48-44.621 27.589-47.135 29.977-7.45 7.074-7.556 13.8-0.606 37.984 2.815 9.793 5.576 19.474 6.135 21.514s1.328 4.753 1.708 6.028c0.785 2.637 2.071 7.107 3.602 12.519 4.761 16.831 6.862 23.414 8.055 25.236 1.479 2.257 4.080 2.708 6.905 1.197z"></path>
<path d="M393.449 459.344c-1.031-0.893-5.911-4.544-10.842-8.115s-13.646-9.906-19.364-14.077c-5.718-4.173-11.649-8.478-13.178-9.568s-5.778-4.144-9.44-6.788c-19.384-13.993-25.207-18.2-31.034-22.425-3.517-2.55-9.36-6.723-12.983-9.274s-7.974-5.808-9.669-7.24c-4.738-4.002-12.716-6.473-18.387-5.692-5.099 0.702-7.325 1.851-13.275 6.86-2.15 1.81-6.018 4.959-8.595 7s-6.965 5.587-9.752 7.882c-24.44 20.129-39.023 31.57-42.096 33.031-2.587 1.228-3.775 1.307-6.674 0.438-3.547-1.063-9.189-6.704-9.189-9.187 0-0.693-1.226-5.084-2.723-9.758-4.475-13.962-13.016-41.237-16.019-51.154-1.544-5.101-3.152-10.108-3.571-11.128s-1.858-5.611-3.196-10.201c-1.339-4.59-3.204-10.642-4.146-13.447s-2.647-8.23-3.787-12.055c-7.213-24.173-8.223-26.649-11.351-27.81-1.63-0.606-4.841-1.866-7.136-2.803s-8.346-3.226-13.447-5.089c-5.1-1.863-10.108-3.734-11.129-4.158-3.318-1.38-10.106-3.87-14.374-5.273-5.499-1.808-25.551-9.342-29.675-11.149-1.785-0.783-5.541-2.175-8.346-3.096-6.931-2.274-21.167-7.671-24.567-9.314-1.526-0.737-3.322-2.483-3.992-3.881s-1.613-2.542-2.095-2.542c-0.483 0-0.877-1.584-0.877-3.521 0-2.863 0.65-4.139 3.477-6.828 3.402-3.235 8.725-6.343 10.865-6.343 0.591 0 2.802-0.835 4.913-1.855s4.197-1.855 4.635-1.855c0.438 0 3.483-1.085 6.768-2.412 12.163-4.913 15.402-6.185 22.2-8.715 3.826-1.424 9.041-3.417 11.591-4.429s9.853-3.799 16.228-6.194c6.376-2.394 12.844-4.916 14.374-5.605s5.704-2.272 9.273-3.519c3.57-1.248 11.499-4.237 17.62-6.642s15.301-5.968 20.401-7.917c5.101-1.949 12.195-4.671 15.765-6.048s8.161-3.118 10.201-3.867c2.040-0.749 4.961-1.927 6.492-2.619s4.66-1.879 6.955-2.638c2.296-0.759 10.224-3.758 17.619-6.665 15.243-5.989 22.472-8.766 32.457-12.466 3.826-1.417 11.962-4.54 18.084-6.939s13.423-5.209 16.228-6.243c2.805-1.035 6.352-2.43 7.882-3.097s5.286-2.118 8.346-3.222c3.060-1.104 6.816-2.564 8.346-3.245s4.452-1.86 6.491-2.62c22.416-8.346 24.319-9.077 32.817-12.607 3.768-1.566 7.341-2.847 7.94-2.847s2.817-0.835 4.928-1.855c2.111-1.020 4.401-1.855 5.089-1.855s1.647-0.368 2.132-0.82c0.484-0.451 4.219-1.974 8.3-3.383s8.967-3.337 10.86-4.281c1.892-0.945 3.879-1.717 4.415-1.717s2.743-0.785 4.905-1.746c2.162-0.96 5.183-2.178 6.714-2.708 4.543-1.573 30.372-11.43 33.385-12.742 1.53-0.665 4.452-1.832 6.491-2.591s7.048-2.624 11.128-4.145c13.645-5.083 20.399-7.916 20.711-8.688 0.445-1.102 8.501-0.949 8.501 0.161 0 0.51 0.589 0.927 1.309 0.927s2.395 1.356 3.724 3.014c1.329 1.657 2.826 3.518 3.328 4.134 1.367 1.675 1.116 7.414-0.349 7.976-0.694 0.266-1.512 2.293-1.817 4.504s-1.641 9.028-2.968 15.148c-1.327 6.12-2.805 13.11-3.283 15.533-1.803 9.118-2.669 13.344-3.611 17.62-1.769 8.030-2.642 12.232-3.666 17.619-0.558 2.933-1.43 7.523-1.938 10.201s-1.325 6.537-1.813 8.578c-0.488 2.040-1.15 4.961-1.47 6.492s-1.435 6.746-2.478 11.591c-2.183 10.139-3.234 15.268-4.464 21.793-0.481 2.55-1.325 6.514-1.875 8.81-1.126 4.695-2.278 10.308-3.522 17.156-1.495 8.228-4.637 23.020-6.207 29.212-1.464 5.776-1.947 8.067-4.102 19.474-0.53 2.805-1.342 6.978-1.805 9.274s-1.296 6.468-1.853 9.274c-0.556 2.805-1.377 6.769-1.825 8.81-2.478 11.277-7.85 36.748-8.51 40.339-0.421 2.296-1.238 6.051-1.815 8.346s-1.416 6.26-1.863 8.81c-0.447 2.55-1.214 6.514-1.704 8.81s-1.346 6.468-1.901 9.274c-0.556 2.805-1.43 6.978-1.943 9.274s-1.344 6.26-1.847 8.81c-0.503 2.55-1.555 7.349-2.339 10.664s-1.813 8.115-2.286 10.664c-0.99 5.337-2.382 12.086-3.726 18.084-0.514 2.296-1.35 6.26-1.858 8.81s-1.276 6.358-1.707 8.462c-0.861 4.205-3.949 9.109-6.644 10.55-2.834 1.517-9.7 1.111-11.788-0.697zM194.464 375.18c2.181-1.527 3.065-5.159 4.85-19.93 3.261-26.978 4.544-33.957 7.248-39.412 2.818-5.687 13.421-16.082 59.116-57.959 4.731-4.335 16.011-14.768 25.067-23.184s20.332-18.848 25.055-23.184c4.724-4.335 23.651-21.822 42.061-38.859 31.096-28.778 33.472-31.196 33.472-34.062 0-2.565-0.415-3.189-2.459-3.702-1.464-0.368-3.246-0.125-4.405 0.599-1.070 0.669-9.457 5.798-18.639 11.398s-18.464 11.268-20.627 12.597c-2.164 1.329-14.683 8.987-27.82 17.016s-30.771 18.836-39.186 24.015c-8.416 5.179-17.068 10.502-19.228 11.831s-11.711 7.214-21.224 13.078c-9.513 5.865-19.726 12.125-22.697 13.91-6.555 3.941-34.453 21.095-41.971 25.807-2.986 1.872-6.729 5.202-8.319 7.399-2.415 3.338-2.949 5.034-3.248 10.321-0.31 5.498 0.321 8.738 4.829 24.753 2.853 10.135 5.589 19.678 6.083 21.209s2.626 8.833 4.739 16.228c5.053 17.68 5.271 18.457 6.247 22.278 2.194 8.59 6.071 11.344 11.055 7.853z"></path>
<path d="M393.837 458.62c-0.916-1.259-2.195-2.289-2.841-2.289s-2.373-1.252-3.84-2.782c-1.466-1.53-3.162-2.782-3.769-2.782s-1.659-0.67-2.339-1.488c-0.679-0.817-4.59-3.764-8.692-6.546s-9.335-6.492-11.63-8.245c-5.202-3.973-10.845-7.975-13.151-9.327-0.966-0.567-2.769-1.981-4.006-3.143s-3.039-2.577-4.006-3.143c-2.306-1.353-7.95-5.356-13.151-9.327-2.296-1.753-7.573-5.517-11.728-8.363s-8.067-5.792-8.692-6.545c-0.625-0.753-1.546-1.369-2.048-1.369s-2.106-0.938-3.565-2.087c-1.459-1.148-4.358-3.339-6.442-4.868s-5.286-4.024-7.116-5.543c-4.5-3.735-8.829-5.091-16.293-5.108-6.921-0.016-8.399 0.586-14.783 6.014-2.399 2.040-6.476 5.378-9.058 7.418s-6.972 5.587-9.756 7.882c-12.958 10.683-16.107 13.25-20.76 16.925-2.744 2.167-5.874 4.538-6.955 5.269s-3.426 2.656-5.211 4.279c-4.952 4.501-10.393 7.838-12.78 7.838-5.392 0-10.034-4.591-12.191-12.055-0.663-2.296-1.566-5.007-2.006-6.028s-1.604-4.776-2.587-8.346c-2.452-8.909-6.605-21.916-7.62-23.866-0.461-0.885-0.838-2.426-0.838-3.423s-0.417-2.070-0.927-2.386c-0.51-0.315-0.927-1.806-0.927-3.313s-0.383-3.464-0.851-4.35c-1.151-2.177-8.462-24.8-10.41-32.212-0.536-2.040-1.351-4.435-1.812-5.32s-0.837-2.248-0.837-3.026c0-0.779-0.375-2.14-0.832-3.026s-1.754-4.74-2.881-8.565c-1.127-3.825-2.985-9.876-4.129-13.447s-2.637-8.293-3.316-10.497c-1.162-3.765-4.373-6.659-7.387-6.659-0.56 0-2.745-0.835-4.857-1.854s-4.57-1.854-5.465-1.854c-0.894 0-1.853-0.368-2.13-0.817s-1.45-1.032-2.605-1.296c-2.104-0.48-7.858-2.562-17.401-6.297-2.805-1.098-9.482-3.58-14.838-5.517s-13.076-4.764-17.156-6.283c-4.080-1.519-10.549-3.889-14.373-5.268s-8.297-3.109-9.938-3.845c-1.64-0.736-5.467-2.131-8.504-3.102-7.875-2.516-11.189-4.429-12.179-7.034-0.476-1.251-1.501-2.274-2.279-2.274-1.032 0-1.414-1.004-1.414-3.709 0-2.040 0.364-3.709 0.811-3.709s2.372-1.43 4.279-3.178c1.908-1.748 4.777-3.673 6.377-4.28s6.391-2.514 10.65-4.242c4.258-1.726 8.249-3.139 8.867-3.139s2.852-0.835 4.963-1.855c2.111-1.020 4.401-1.855 5.089-1.855s1.647-0.381 2.132-0.846c0.484-0.465 4.059-1.905 7.944-3.197s8.892-3.161 11.129-4.149c9.242-4.086 11.734-5.081 16.848-6.721 2.95-0.946 6.706-2.322 8.346-3.055s7.156-2.877 12.255-4.764c5.1-1.887 11.042-4.22 13.205-5.186s4.478-1.756 5.147-1.756c0.669 0 1.612-0.381 2.096-0.846s4.011-1.908 7.837-3.206c3.826-1.298 10.085-3.671 13.91-5.274s9.459-3.731 12.519-4.731c3.060-0.999 6.816-2.386 8.346-3.083 2.858-1.301 6.087-2.53 15.765-6.004 3.060-1.099 7.859-2.988 10.665-4.2s7.605-3.115 10.665-4.232c3.060-1.117 6.288-2.398 7.174-2.847s2.053-0.818 2.595-0.818c0.542 0 2.713-0.835 4.823-1.855s4.512-1.855 5.333-1.855c0.822 0 1.892-0.362 2.376-0.803s4.011-1.942 7.837-3.335c3.826-1.393 8.207-3.087 9.737-3.763s4.452-1.851 6.491-2.611c14.954-5.567 19.153-7.156 23.647-8.944 2.805-1.117 7.084-2.76 9.508-3.654s4.685-1.902 5.023-2.24c0.338-0.338 1.302-0.615 2.142-0.615s3.253-0.835 5.365-1.855c2.111-1.020 4.198-1.855 4.637-1.855s2.526-0.835 4.637-1.855c2.111-1.020 4.197-1.855 4.635-1.855s3.483-1.085 6.768-2.412c12.163-4.913 15.402-6.185 22.2-8.716 3.825-1.424 9.25-3.492 12.055-4.595s8.022-3.055 11.591-4.338c3.57-1.283 7.743-2.895 9.274-3.584 2.873-1.293 6.199-2.556 15.765-5.989 3.060-1.099 7.86-2.988 10.664-4.2s7.604-3.115 10.664-4.231c3.060-1.117 6.288-2.397 7.175-2.847s2.053-0.818 2.595-0.818c0.541 0 2.712-0.835 4.824-1.855s4.512-1.855 5.334-1.855c0.822 0 1.892-0.362 2.376-0.803s4.010-1.943 7.837-3.337c3.825-1.394 8.625-3.267 10.664-4.165s4.868-1.91 6.284-2.252c1.416-0.342 3.398-1.444 4.405-2.452 1.885-1.886 8.323-2.623 8.323-0.955 0 0.483 1.144 1.425 2.541 2.095s3.090 2.362 3.76 3.76c0.67 1.398 1.822 2.541 2.559 2.541 2.193 0 1.813 7.079-0.412 7.661-1.265 0.331-1.897 1.585-2.275 4.513-0.915 7.103-2.895 17.49-5.724 30.020-0.806 3.57-1.853 8.578-2.327 11.129s-1.322 6.306-1.884 8.346c-0.562 2.040-1.438 6.005-1.95 8.81s-1.296 6.978-1.745 9.274c-0.45 2.296-1.244 6.468-1.765 9.274s-1.399 6.978-1.95 9.274c-0.55 2.296-1.373 6.051-1.827 8.346s-1.226 6.051-1.713 8.346c-0.487 2.296-1.362 6.855-1.944 10.133s-1.267 6.298-1.522 6.709c-0.255 0.412-0.859 2.947-1.342 5.632s-1.323 6.76-1.866 9.055c-1.010 4.267-1.909 8.601-3.654 17.619-0.543 2.805-1.377 6.978-1.854 9.274s-1.236 6.26-1.686 8.81c-0.45 2.55-1.505 7.558-2.345 11.129-2.317 9.851-6.148 27.95-8.047 38.021-0.481 2.55-1.325 6.514-1.875 8.81-1.123 4.681-2.223 10.075-3.594 17.62-0.859 4.729-4.654 22.473-6.644 31.066-1.144 4.938-2.574 11.841-3.747 18.084-2.162 11.507-2.594 13.628-3.592 17.62-0.574 2.296-1.409 6.051-1.856 8.346s-1.084 5.425-1.414 6.955c-0.332 1.53-1.183 5.704-1.892 9.274-1.313 6.612-3.375 16.137-5.119 23.647-0.965 4.158-1.992 9.123-3.368 16.291-0.429 2.234-2.084 5.353-4.059 7.651-2.988 3.476-3.758 3.875-7.418 3.849-3.255-0.024-4.423-0.494-5.75-2.318zM195.779 375.038c1.639-1.436 2.365-4.471 3.624-15.152 0.451-3.825 1.268-10.085 1.815-13.91s1.362-10.085 1.81-13.91c1.071-9.135 3.483-15.805 7.465-20.641 3.767-4.574 28.617-28.128 66.375-62.911 8.636-7.956 28.221-26.067 43.522-40.246s34.256-31.666 42.121-38.857c26.574-24.297 29.748-27.533 29.748-30.33 0-5.072-5.055-7.097-9.38-3.758-1.216 0.939-8.471 5.487-16.122 10.106s-16.623 10.081-19.938 12.137c-8.142 5.048-40.62 24.984-46.341 28.446-2.529 1.53-11.723 7.164-20.429 12.519s-17.901 10.988-20.433 12.519c-7.81 4.72-29.946 18.377-33.015 20.369-1.599 1.038-4.312 2.712-6.028 3.719-6.099 3.581-33.934 20.62-40.183 24.597-1.202 0.765-4.204 2.594-6.672 4.065-5.944 3.541-9.377 6.822-11.275 10.774-2.255 4.696-1.989 15.44 0.595 24.111 2.724 9.137 5.589 19.142 6.641 23.183 0.464 1.785 2.345 8.253 4.179 14.373s3.763 12.797 4.287 14.838c0.524 2.040 1.758 6.268 2.743 9.395s1.79 6.347 1.79 7.156c0 0.808 0.698 2.933 1.552 4.724 2.339 4.906 7.615 6.134 11.548 2.688z"></path>
<path d="M395.041 459.587c0-0.759-1.565-2.438-3.478-3.732s-5.147-3.611-7.187-5.148c-2.040-1.538-7.048-5.025-11.128-7.749s-8.214-5.838-9.185-6.918c-0.971-1.081-2.255-1.965-2.853-1.965s-2.098-1.087-3.334-2.417c-1.236-1.329-3.082-2.791-4.103-3.25s-3.733-2.289-6.028-4.070c-4.067-3.155-9.296-6.925-13.506-9.738-1.145-0.765-3.27-2.354-4.721-3.53s-4.099-3.142-5.884-4.368c-8.394-5.767-15.666-10.959-19.474-13.904-2.296-1.776-5.007-3.603-6.028-4.060s-2.866-1.92-4.103-3.25c-1.236-1.329-2.677-2.417-3.202-2.417s-2.226-1.184-3.779-2.632c-3.805-3.543-10.104-5.715-16.572-5.715-6.255 0-10.729 1.995-15.415 6.874-1.757 1.83-3.592 3.327-4.077 3.327s-3.011 1.87-5.614 4.154c-11.863 10.413-13.308 11.611-14.014 11.611-0.413 0-3.163 2.191-6.111 4.868s-7.367 6.462-9.821 8.41c-2.454 1.947-7.57 6.008-11.368 9.022-9.578 7.603-12.105 8.714-16.055 7.063-3.398-1.42-8.106-6.445-8.106-8.651 0-0.771-1.22-5.224-2.711-9.898s-3.627-11.627-4.748-15.452c-1.119-3.825-2.367-7.79-2.77-8.81-0.808-2.041-3.786-11.467-8.352-26.43-1.634-5.356-3.281-10.572-3.659-11.591-1.632-4.401-2.799-8.59-2.799-10.047 0-0.863-0.391-2.295-0.868-3.18-1.724-3.197-9.332-27.132-9.332-29.359 0-1.254-0.417-2.538-0.927-2.854s-0.927-1.389-0.927-2.386c0-0.997-0.389-2.538-0.866-3.423s-1.415-3.648-2.087-6.139c-1.026-3.808-1.737-4.747-4.466-5.902-1.785-0.755-5.075-2.182-7.311-3.171s-7.243-2.855-11.129-4.149c-3.885-1.293-7.46-2.732-7.944-3.197s-1.816-0.846-2.96-0.846c-1.143 0-2.336-0.417-2.651-0.927s-1.508-0.927-2.651-0.927c-1.143 0-2.475-0.376-2.96-0.837s-2.758-1.473-5.054-2.252c-3.96-1.342-10.567-3.776-27.356-10.075-4.080-1.531-10.307-3.808-13.838-5.061s-8.203-3.090-10.382-4.083c-2.179-0.993-4.587-1.805-5.35-1.805s-1.645-0.417-1.961-0.927c-0.315-0.51-1.319-0.927-2.231-0.927-2.814 0-7.587-2.87-8.648-5.201-0.555-1.22-1.777-2.218-2.716-2.218-1.372 0-1.706-0.726-1.706-3.709 0-2.463 0.413-3.709 1.23-3.709 0.676 0 2.241-1.081 3.477-2.403 2.438-2.605 8.642-5.943 11.047-5.943 0.822 0 1.892-0.381 2.376-0.846s4.046-1.9 7.915-3.188c6.767-2.253 9.512-3.337 18.36-7.248 2.236-0.988 7.243-2.855 11.128-4.149s7.46-2.732 7.944-3.197c0.484-0.465 1.62-0.846 2.522-0.846s3.127-0.835 4.943-1.855c1.816-1.020 4.1-1.855 5.074-1.855s2.029-0.417 2.345-0.927c0.315-0.51 1.201-0.927 1.969-0.927s3.677-1.043 6.465-2.319c2.787-1.275 5.599-2.319 6.246-2.319s1.575-0.381 2.059-0.846c0.484-0.465 4.046-1.9 7.915-3.188s8.459-2.955 10.2-3.704c8.419-3.623 14.824-6.155 20.322-8.036 3.315-1.134 6.424-2.43 6.909-2.881s1.757-0.82 2.828-0.82c1.071 0 2.344-0.381 2.828-0.846s4.046-1.9 7.915-3.188c3.869-1.288 8.668-3.044 10.665-3.902 10.782-4.634 14.172-5.982 17.541-6.976 2.040-0.602 5.314-1.875 7.274-2.828s4.276-1.733 5.147-1.733c0.87 0 1.978-0.369 2.463-0.82s3.594-1.754 6.909-2.895c3.315-1.143 7.726-2.836 9.802-3.764s5.414-2.302 7.418-3.051c2.005-0.75 6.983-2.608 11.065-4.13 7.246-2.702 10.461-3.964 22.664-8.893 3.284-1.327 6.505-2.412 7.159-2.412s2.673-0.835 4.489-1.855c1.816-1.020 4.041-1.855 4.943-1.855s2.038-0.381 2.522-0.846c0.484-0.465 4.010-1.903 7.837-3.195s10.502-3.855 14.838-5.695c4.335-1.841 11.012-4.404 14.838-5.695s7.351-2.73 7.837-3.195c0.484-0.465 1.757-0.846 2.828-0.846s2.344-0.361 2.828-0.8c0.484-0.44 4.010-1.957 7.837-3.371s8.724-3.349 10.886-4.299c2.162-0.951 4.478-1.73 5.147-1.73s1.612-0.381 2.096-0.846c0.484-0.465 4.046-1.9 7.915-3.188s8.668-3.044 10.664-3.902c10.783-4.634 14.172-5.982 17.541-6.977 2.040-0.602 5.313-1.874 7.274-2.828s4.276-1.734 5.147-1.734c0.87 0 1.978-0.368 2.462-0.82s3.594-1.754 6.909-2.895c3.315-1.142 7.726-2.836 9.801-3.764 3.863-1.728 6.877-2.887 16.628-6.395 5.262-1.893 8.662-3.232 17.851-7.035 2.168-0.897 3.942-2.193 3.942-2.88 0-0.84 1.216-1.251 3.709-1.251 2.481 0 3.709 0.411 3.709 1.242 0 0.683 1.049 1.72 2.332 2.304s2.81 2.111 3.394 3.395c0.584 1.283 1.83 2.332 2.769 2.332 1.372 0 1.706 0.727 1.706 3.71 0 3.063-0.317 3.71-1.813 3.71-1.38 0-1.942 0.83-2.356 3.478-0.298 1.912-0.944 4.987-1.433 6.831s-0.89 4.578-0.89 6.074c0 1.496-0.377 3.118-0.837 3.602s-1.062 2.758-1.337 5.054c-0.274 2.296-0.925 6.26-1.445 8.81s-1.373 6.932-1.894 9.737c-0.522 2.805-1.395 6.978-1.942 9.273-1.369 5.751-2.409 10.688-3.514 16.692-0.96 5.211-3.32 16.071-4.938 22.72-1.654 6.799-4.45 21.148-5.059 25.965-0.259 2.040-0.83 4.544-1.272 5.564s-1.036 3.524-1.319 5.564c-0.284 2.040-0.965 5.587-1.515 7.882s-1.375 6.26-1.834 8.81c-0.459 2.55-1.519 7.558-2.357 11.129-1.547 6.594-2.497 11.143-4.068 19.475-0.481 2.55-1.341 6.514-1.913 8.81s-1.443 6.26-1.938 8.81c-0.495 2.55-1.27 6.514-1.723 8.81s-1.245 6.468-1.761 9.274c-1.921 10.456-4.805 23.409-5.438 24.434-0.361 0.583-0.971 2.939-1.357 5.236s-1.149 6.473-1.695 9.277c-0.546 2.805-1.378 7.187-1.848 9.737-1.658 8.997-2.677 13.955-3.716 18.084-0.578 2.296-1.406 6.26-1.841 8.81-0.868 5.094-5.101 24.728-6.598 30.603-1 3.927-1.954 8.534-3.648 17.62-2.582 13.848-3.818 20.061-5.443 27.356-0.858 3.852-1.585 7.298-3.624 17.18-0.885 4.289-1.538 5.546-4.977 9.577-2.119 2.483-3.122 2.918-6.723 2.918-3.129 0-4.233-0.36-4.233-1.38zM196.015 375.772c1.827-2.018 2.504-5.654 6.083-32.657 1.801-13.585 3.296-21.51 4.653-24.664 2.073-4.82 14.294-17.24 45.699-46.443 7.274-6.764 19.132-17.823 26.349-24.575 17.851-16.697 29.026-26.996 36.36-33.507 3.387-3.006 10.344-9.475 15.462-14.374s12.628-11.821 16.692-15.381c4.063-3.56 11.213-10.179 15.888-14.707s9.683-8.969 11.128-9.868c1.445-0.899 6.28-5.39 10.743-9.98 8.181-8.415 9.187-10.412 7.154-14.209-1.244-2.324-7.866-2.486-10.334-0.253-0.937 0.847-2.528 1.995-3.538 2.55s-9.993 6.018-19.962 12.138c-9.97 6.12-20.304 12.464-22.964 14.097s-6.715 4.048-9.010 5.368c-4.527 2.602-16.404 9.911-23.36 14.375-2.392 1.535-4.74 2.791-5.219 2.791s-1.425 0.669-2.104 1.488c-0.679 0.818-2.087 1.861-3.127 2.317s-5.159 2.917-9.151 5.467c-3.993 2.551-7.445 4.638-7.672 4.638s-3.611 2.118-7.519 4.706c-3.909 2.588-8.593 5.53-10.411 6.537s-5.483 3.167-8.144 4.799c-2.661 1.632-7.878 4.811-11.591 7.066s-8.91 5.488-11.546 7.187c-2.637 1.698-5.18 3.089-5.653 3.089s-1.613 0.835-2.537 1.855c-0.923 1.020-2.053 1.855-2.511 1.855s-4.253 2.207-8.434 4.904c-4.181 2.696-10.732 6.728-14.556 8.959s-9.668 5.823-12.983 7.981c-3.315 2.159-7.28 4.558-8.81 5.332-3.032 1.533-6.602 5.156-9.203 9.34-2.407 3.872-2.329 16.016 0.15 23.325 2.869 8.46 8.589 28.748 8.589 30.466 0 0.839 0.381 2.25 0.849 3.135 0.786 1.491 3.673 11.156 5.607 18.766 0.453 1.785 1.859 6.793 3.123 11.128s2.531 8.934 2.815 10.219c1.309 5.913 9.299 8.827 12.999 4.74z"></path>
<path d="M395.342 459.663c0.483-1.258-1.99-4.26-3.508-4.26-0.408 0-2.348-1.356-4.312-3.014-7.156-6.043-9.81-8.021-12.25-9.132-1.369-0.624-2.489-1.434-2.489-1.8s-1.203-1.164-2.673-1.773c-1.47-0.609-3.844-2.329-5.274-3.822s-3.071-2.714-3.644-2.714c-0.574 0-2.243-1.252-3.709-2.782s-3.149-2.782-3.739-2.782c-0.591 0-1.829-0.835-2.752-1.854s-2.085-1.854-2.582-1.854c-0.497 0-2.497-1.356-4.444-3.014-5.452-4.641-8.95-7.187-9.872-7.187-0.462 0-2.038-1.252-3.505-2.782s-3.141-2.782-3.721-2.782c-0.58 0-2.067-1.084-3.304-2.409s-3.87-3.307-5.851-4.405c-6.305-3.493-7.128-4.034-9.671-6.356-1.37-1.251-4.786-3.762-7.591-5.579s-5.896-4.185-6.867-5.26c-0.971-1.076-2.25-1.957-2.841-1.957s-2.273-1.252-3.739-2.782c-1.466-1.53-3.547-2.782-4.625-2.782s-2.471-0.512-3.097-1.137c-1.565-1.565-14.318-1.373-17.562 0.264-1.395 0.704-4.5 2.962-6.9 5.018s-6.487 5.408-9.083 7.447c-2.596 2.040-6.727 5.483-9.18 7.651s-4.852 3.942-5.334 3.942c-0.482 0-2.524 1.701-4.541 3.781s-5.543 5.050-7.839 6.601c-2.296 1.551-4.508 3.399-4.918 4.108s-2.288 2.079-4.173 3.046c-1.886 0.967-4.471 2.884-5.746 4.259-4.229 4.562-11.854 9.060-14.314 8.442-4.25-1.067-7.701-4.96-9.344-10.544-0.862-2.925-1.894-6.154-2.295-7.173s-1.16-3.524-1.686-5.563c-1.34-5.192-5.152-17.11-8.453-26.43-1.536-4.335-2.807-9.005-2.825-10.378s-0.449-2.753-0.959-3.068c-0.51-0.315-0.927-1.389-0.927-2.386s-0.37-2.537-0.823-3.423c-1.302-2.545-6.595-19.376-6.595-20.971 0-0.792-0.576-2.811-1.28-4.486s-1.774-4.714-2.38-6.755c-0.605-2.040-1.44-4.544-1.856-5.563-0.808-1.983-3.827-12.151-5.646-19.010-1.098-4.141-1.554-5.483-3.561-10.476-0.573-1.426-1.043-3.415-1.043-4.418 0-1.801-4.833-5.497-7.196-5.503-0.643-0.002-2.939-0.81-5.1-1.796s-7.177-2.922-11.143-4.303c-3.966-1.38-7.433-2.869-7.706-3.308s-1.309-0.798-2.306-0.798c-0.996 0-2.537-0.361-3.423-0.803-1.826-0.911-4.324-1.822-17.255-6.298-5.034-1.743-10.312-3.767-11.728-4.5s-5.852-2.423-9.857-3.757c-4.005-1.334-7.678-2.805-8.163-3.271s-1.816-0.846-2.959-0.846c-1.143 0-2.336-0.417-2.651-0.927s-1.37-0.927-2.345-0.927c-0.974 0-3.258-0.835-5.074-1.855s-3.901-1.855-4.633-1.855c-0.733 0-2.806-0.626-4.608-1.392s-4.747-2.014-6.544-2.777c-1.919-0.815-3.646-2.383-4.186-3.804-0.602-1.584-1.394-2.236-2.297-1.888-1.079 0.414-1.378-0.282-1.378-3.206 0-2.054 0.345-3.522 0.767-3.261s2.768-1.18 5.215-3.202c2.447-2.022 5.544-3.909 6.884-4.194s4.040-1.323 6.001-2.308c1.961-0.984 4.336-1.79 5.277-1.79s1.97-0.417 2.285-0.927c0.315-0.51 1.374-0.927 2.352-0.927s3.98-1.012 6.669-2.25c7.793-3.585 10.96-4.881 17.872-7.311 3.57-1.255 8.683-3.165 11.36-4.244 12.638-5.090 14.761-5.891 16.924-6.376 1.275-0.286 3.687-1.288 5.361-2.226s3.616-1.705 4.317-1.705c0.701 0 2.88-0.792 4.841-1.761s5.651-2.405 8.202-3.193c2.55-0.787 7.766-2.763 11.592-4.389s10.085-4.111 13.91-5.52c3.826-1.41 9.25-3.49 12.055-4.623s7.605-2.873 10.665-3.867c3.060-0.994 7.233-2.585 9.274-3.537s5.379-2.349 7.418-3.104c12.284-4.549 19.142-7.146 23.647-8.956 2.805-1.126 6.769-2.633 8.81-3.349s4.434-1.715 5.32-2.221c0.886-0.506 2.229-0.92 2.986-0.92s2.861-0.835 4.678-1.855c1.816-1.020 4.041-1.855 4.943-1.855s2.037-0.381 2.522-0.846c0.484-0.465 4.011-1.908 7.837-3.206s10.085-3.685 13.91-5.304c6.152-2.605 13.724-5.505 24.111-9.233 1.785-0.641 4.915-1.879 6.955-2.75s5.378-2.111 7.418-2.755c2.040-0.644 5.913-2.162 8.606-3.376s5.262-2.206 5.709-2.206c0.447 0 2.416-0.78 4.377-1.734s5.235-2.228 7.274-2.833c3.62-1.073 7.709-2.674 18.084-7.084 2.805-1.192 6.769-2.66 8.81-3.263s5.313-1.874 7.274-2.828c1.961-0.954 4.113-1.734 4.781-1.734s2.82-0.79 4.781-1.757c1.961-0.966 5.443-2.284 7.738-2.928s5.007-1.668 6.028-2.275c1.766-1.049 3.786-1.848 19.938-7.873 3.825-1.427 9.25-3.516 12.055-4.643s6.769-2.633 8.81-3.349c2.040-0.715 4.435-1.715 5.32-2.221s2.229-0.92 2.986-0.92c0.757 0 2.861-0.835 4.678-1.855s4.041-1.855 4.943-1.855c0.902 0 2.038-0.381 2.522-0.846s4.010-1.905 7.837-3.2c13.583-4.596 21.813-8.48 21.52-10.158-0.218-1.251 0.473-1.561 3.478-1.561 3.132 0 3.75 0.306 3.75 1.855 0 1.048 0.618 1.855 1.423 1.855 0.783 0 2.298 1.484 3.368 3.298 1.182 2.002 2.444 3.106 3.214 2.811 0.938-0.36 1.269 0.445 1.269 3.090 0 2.821-0.339 3.551-1.603 3.449-1.182-0.095-1.765 0.844-2.226 3.581-1.772 10.564-2.817 15.725-3.358 16.6-0.33 0.534-0.969 3.278-1.418 6.096-0.873 5.474-2.050 11.816-3.447 18.57-0.474 2.296-1.115 5.633-1.425 7.418s-0.927 4.080-1.374 5.1c-0.446 1.020-1.022 3.524-1.281 5.563s-0.924 6.005-1.48 8.81c-0.556 2.805-1.365 7.187-1.796 9.737-0.74 4.364-2.524 11.966-4.787 20.401-0.548 2.040-1.363 5.796-1.812 8.346-0.798 4.528-1.833 9.876-3.635 18.779-0.49 2.423-1.145 5.865-1.454 7.65s-0.927 4.080-1.374 5.101c-0.446 1.020-1.022 3.524-1.281 5.564s-0.881 5.796-1.385 8.346c-0.503 2.55-1.772 8.976-2.819 14.28s-2.298 10.938-2.781 12.519c-1.907 6.249-2.853 10.634-2.853 13.231 0 1.497-0.377 3.118-0.837 3.602s-1.087 2.863-1.392 5.286c-0.305 2.423-0.803 6.387-1.108 8.81s-0.93 4.801-1.392 5.286c-0.461 0.484-0.837 2.105-0.837 3.602s-0.45 4.438-1.001 6.538c-1.703 6.496-2.53 10.099-3.642 15.873-0.589 3.060-1.491 7.233-2.005 9.274-1.096 4.361-2.248 10.402-3.091 16.228-0.332 2.296-0.961 5.007-1.397 6.028s-1.046 3.315-1.355 5.101c-0.309 1.785-0.947 5.123-1.418 7.418-0.805 3.928-1.929 9.843-3.697 19.474-0.786 4.284-3.067 14.282-4.76 20.865-0.524 2.040-1.327 5.587-1.784 7.882-1.678 8.443-2.837 14.487-3.642 19.010-0.454 2.55-1.298 6.514-1.877 8.81-1.237 4.916-2.68 12.083-3.389 16.836-0.308 2.063-1.559 4.399-3.199 5.969-1.481 1.419-2.693 3.337-2.693 4.262 0 1.404-0.781 1.681-4.736 1.681-3.688 0-4.625-0.288-4.236-1.303zM195.865 376.618c2.701-2.125 3.363-5.123 6.261-28.323 2.582-20.679 3.51-25.762 5.552-30.43 1.665-3.804 3.929-6.097 44.1-44.659 6.892-6.616 13.384-12.486 14.426-13.043s7.071-6.101 13.399-12.317c6.327-6.216 12.981-12.305 14.784-13.53s8.010-6.881 13.791-12.571c5.781-5.69 11.728-11.111 13.216-12.047s7.916-6.962 14.283-13.392c6.368-6.429 11.983-11.69 12.477-11.69s6.445-5.321 13.224-11.823c6.779-6.503 16.676-15.942 21.994-20.976s9.923-10.166 10.233-11.405c0.311-1.239 0.027-3.38-0.63-4.757-1.002-2.1-1.877-2.55-5.41-2.78-3.296-0.215-4.589 0.138-5.933 1.623-0.945 1.044-2.214 1.898-2.822 1.898s-1.859 0.835-2.782 1.855c-0.923 1.020-2.041 1.855-2.485 1.855s-3.404 1.618-6.579 3.594c-3.175 1.976-6.838 4.167-8.139 4.869-3.38 1.822-7.553 4.371-15.125 9.242-8.735 5.619-12.188 7.697-17.683 10.645-2.514 1.349-5.087 2.929-5.719 3.512s-3.301 2.311-5.933 3.841c-2.632 1.53-6.11 3.702-7.728 4.826s-4.647 2.877-6.732 3.895c-2.084 1.019-4.326 2.499-4.982 3.289s-1.716 1.437-2.356 1.437c-0.64 0-1.712 0.66-2.381 1.467s-3.538 2.704-6.373 4.215c-7.211 3.845-12.801 7.158-19.358 11.474-3.1 2.040-7.773 4.961-10.384 6.492-5.479 3.21-11.41 6.881-18.229 11.281-2.637 1.701-5.015 3.094-5.286 3.094s-2.286 1.148-4.48 2.55c-2.193 1.403-4.822 3.084-5.843 3.736s-3.044 1.904-4.497 2.782c-1.453 0.878-4.375 2.674-6.492 3.993s-5.804 3.613-8.192 5.101c-2.389 1.487-6.494 3.956-9.121 5.486s-7.527 4.583-10.888 6.784c-3.361 2.2-7.394 4.647-8.963 5.436-4.053 2.039-8.746 6.68-10.815 10.695-2.407 4.671-2.393 15.394 0.034 23.201 2.514 8.091 6.637 22.704 9.492 33.635 0.533 2.040 1.328 4.544 1.769 5.563s1.685 5.193 2.766 9.274c1.081 4.080 2.494 9.297 3.14 11.591s1.71 6.26 2.367 8.81c2.567 9.984 4.498 12.32 10.297 12.461 1.334 0.033 3.464-0.759 4.733-1.757z"></path>
<path d="M395.041 460.039c0-0.51 0.49-0.927 1.089-0.927s0.109-1.043-1.089-2.318c-1.198-1.275-2.577-2.318-3.063-2.318s-2.5-1.356-4.474-3.014c-1.974-1.658-5.205-4.37-7.18-6.028s-3.997-3.014-4.493-3.014c-0.497 0-1.658-0.835-2.582-1.854s-2.085-1.854-2.582-1.854c-0.497 0-2.519-1.356-4.493-3.014-7.541-6.332-10.63-8.671-13.096-9.919-1.403-0.709-2.55-1.637-2.55-2.061s-0.594-0.771-1.32-0.771c-0.726 0-2.515-1.195-3.977-2.658s-3.525-2.933-4.586-3.27c-1.060-0.337-2.675-1.436-3.586-2.443s-2.14-1.831-2.731-1.831c-0.591 0-2.273-1.252-3.739-2.782s-3.058-2.782-3.539-2.782c-0.481 0-2.467-1.356-4.414-3.014-5.452-4.641-8.95-7.187-9.872-7.187-0.462 0-2.038-1.252-3.505-2.782s-3.149-2.782-3.739-2.782c-0.591 0-1.829-0.835-2.752-1.854s-2.085-1.854-2.582-1.854c-0.497 0-2.52-1.461-4.495-3.245s-4.18-3.245-4.899-3.245c-0.719 0-2.36-1.252-3.647-2.782-1.385-1.647-3.236-2.782-4.534-2.782-1.207 0-2.656-0.464-3.223-1.029-1.442-1.442-16.339-1.207-18.914 0.298-1.125 0.658-3.49 2.76-5.255 4.673s-3.804 3.478-4.531 3.478c-0.727 0-3.331 1.878-5.784 4.173s-4.794 4.173-5.201 4.173c-0.734 0-4.797 3.417-15.16 12.751-2.973 2.678-5.742 4.868-6.153 4.868s-2.877 1.87-5.48 4.154c-2.603 2.285-6.652 5.832-8.998 7.882s-4.614 3.728-5.041 3.728c-0.426 0-1.738 0.904-2.914 2.009-3.206 3.011-7.152 2.613-10.992-1.11-1.79-1.735-3.218-4.042-3.218-5.2 0-1.145-0.417-2.339-0.927-2.655s-0.927-1.389-0.927-2.386c0-0.997-0.366-2.538-0.814-3.423-1.431-2.832-2.896-8.161-2.896-10.532 0-1.264-0.345-2.695-0.766-3.18s-1.287-2.759-1.925-5.054c-0.637-2.296-1.753-5.354-2.48-6.798s-1.321-3.401-1.321-4.35c0-0.949-0.417-1.983-0.927-2.298s-0.927-1.567-0.927-2.782c0-1.215-0.417-2.467-0.927-2.782s-0.927-1.985-0.927-3.709c0-1.725-0.417-3.394-0.927-3.709s-0.927-1.717-0.927-3.115c0-1.398-0.345-2.938-0.766-3.423s-1.304-2.759-1.96-5.054c-1.196-4.18-1.704-5.637-3.649-10.476-0.573-1.426-1.043-3.658-1.043-4.957s-0.573-3.471-1.273-4.825c-1.631-3.153-3.364-8.637-3.364-10.642 0-0.856-0.417-1.557-0.927-1.557s-0.927-0.701-0.927-1.557c0-1.743-1.651-7.328-2.896-9.791-0.447-0.885-0.814-2.664-0.814-3.954s-0.38-3.068-0.844-3.954c-0.464-0.885-1.971-5.255-3.35-9.709-2.151-6.953-2.905-8.298-5.326-9.505-1.551-0.774-3.369-1.406-4.041-1.406s-2.707-0.835-4.523-1.854c-1.816-1.020-3.872-1.854-4.569-1.854s-4.335-1.276-8.086-2.834c-3.751-1.56-8.906-3.479-11.456-4.267s-6.241-2.224-8.202-3.193c-1.961-0.969-4.335-1.761-5.278-1.761s-1.97-0.417-2.285-0.927c-0.315-0.51-1.567-0.927-2.782-0.927s-2.467-0.417-2.782-0.927c-0.315-0.51-1.344-0.927-2.285-0.927s-3.317-0.827-5.278-1.837c-1.961-1.011-6.486-2.84-10.056-4.065-9.904-3.398-12.837-4.474-14.593-5.35-0.886-0.441-2.229-0.804-2.986-0.804s-2.861-0.835-4.678-1.855c-1.816-1.020-3.921-1.855-4.678-1.855s-2.1-0.403-2.986-0.895c-0.886-0.493-3.802-1.796-6.479-2.897s-4.869-2.524-4.869-3.164c0-0.639-0.657-1.709-1.462-2.376-1.212-1.005-1.606-0.985-2.304 0.119-0.578 0.913-0.843 0.018-0.843-2.841 0-2.691 0.284-3.726 0.799-2.912 0.625 0.987 1.579 0.584 4.39-1.855 4.394-3.81 7.209-5.434 9.422-5.434 0.925 0 2.078-0.381 2.563-0.846s4.147-1.934 8.138-3.263c3.992-1.329 8.879-3.244 10.86-4.255s4.234-1.838 5.008-1.838c0.773 0 2.772-0.833 4.442-1.851s3.951-1.853 5.069-1.855c1.118-0.002 2.29-0.421 2.605-0.931s1.371-0.927 2.345-0.927c0.975 0 3.257-0.835 5.074-1.855s3.865-1.855 4.553-1.855c1.167 0 10.132-3.665 13.749-5.621 0.885-0.478 2.229-0.87 2.986-0.87s2.861-0.835 4.677-1.855c1.816-1.020 3.876-1.855 4.578-1.855s2.88-0.792 4.841-1.761c1.961-0.969 5.651-2.399 8.202-3.18 5.386-1.649 13.307-4.764 18.402-7.238 1.961-0.952 4.335-1.731 5.278-1.731s1.97-0.417 2.286-0.927c0.315-0.51 1.37-0.927 2.345-0.927s3.257-0.835 5.074-1.855c1.816-1.020 4.041-1.855 4.943-1.855s2.037-0.381 2.522-0.846c0.484-0.465 4.147-1.934 8.138-3.263s8.879-3.244 10.859-4.255c1.982-1.011 4.232-1.838 5.001-1.838s2.886-0.835 4.702-1.855c1.816-1.020 4.1-1.855 5.074-1.855s2.030-0.417 2.345-0.927c0.315-0.51 1.37-0.927 2.345-0.927s3.257-0.835 5.074-1.855c1.816-1.020 3.865-1.855 4.553-1.855 1.167 0 10.132-3.665 13.75-5.621 0.886-0.478 2.229-0.87 2.986-0.87s2.861-0.835 4.678-1.855c1.816-1.020 4.228-1.868 5.361-1.884s2.835-0.618 3.785-1.338c0.95-0.72 4.079-2.014 6.955-2.878s7.394-2.557 10.040-3.763c2.647-1.207 5.242-2.193 5.768-2.193s2.442-0.835 4.259-1.855c1.816-1.020 4.099-1.855 5.074-1.855s2.029-0.417 2.345-0.927c0.315-0.51 1.344-0.927 2.286-0.927s3.317-0.775 5.277-1.724c1.961-0.948 5.026-2.241 6.811-2.874 13.87-4.916 21.586-7.978 28.284-11.228 2.040-0.99 4.623-1.798 5.741-1.796s2.289-0.415 2.605-0.925c0.315-0.51 1.37-0.927 2.345-0.927s3.257-0.835 5.074-1.855c1.816-1.020 3.94-1.855 4.718-1.855s3.284-1.043 5.569-2.319c2.284-1.275 4.948-2.319 5.92-2.319s2.025-0.417 2.341-0.927c0.315-0.51 1.37-0.927 2.345-0.927s3.257-0.835 5.074-1.855c1.816-1.020 4.041-1.855 4.943-1.855s2.038-0.381 2.522-0.846c0.484-0.465 4.147-1.933 8.138-3.263s8.878-3.243 10.86-4.255c1.981-1.011 4.232-1.838 5.002-1.838s2.885-0.835 4.702-1.855c1.816-1.020 4.099-1.855 5.074-1.855s2.029-0.417 2.345-0.927c0.315-0.51 1.37-0.927 2.345-0.927s3.257-0.835 5.074-1.855c1.816-1.020 3.865-1.855 4.553-1.855 1.167 0 10.132-3.665 13.75-5.621 0.885-0.478 2.229-0.871 2.986-0.871s2.861-0.835 4.678-1.855c1.816-1.020 4.228-1.868 5.361-1.884s2.835-0.618 3.785-1.338c0.95-0.719 4.079-2.014 6.955-2.878s7.394-2.557 10.040-3.763c2.647-1.206 5.171-2.193 5.611-2.193s1.918-0.522 3.286-1.16c2.505-1.167 4.159-3.477 2.491-3.477-0.494 0-0.899-0.417-0.899-0.927s1.669-0.927 3.709-0.927c2.040 0 3.709 0.417 3.709 0.927s-0.404 0.927-0.899 0.927c-1.781 0 0.157 2.628 2.342 3.176 1.332 0.334 2.464 1.467 2.798 2.798 0.656 2.611 3.156 3.89 4.247 2.171 0.454-0.715 0.755 0.477 0.755 2.982s-0.302 3.697-0.755 2.983c-1.497-2.359-3.673-0.15-4.207 4.271-1.411 11.68-1.765 13.693-2.601 14.722-0.856 1.056-2.17 7.493-3.179 15.582-0.255 2.040-0.832 4.544-1.284 5.564s-1.038 3.524-1.303 5.564c-0.955 7.372-1.7 10.691-2.509 11.192-0.454 0.28-0.825 2.489-0.825 4.906s-0.377 4.793-0.837 5.278c-0.461 0.484-1.087 2.863-1.392 5.286s-0.803 6.387-1.108 8.81c-0.305 2.423-0.93 4.801-1.392 5.286s-0.837 2.233-0.837 3.887c0 1.653-0.417 3.263-0.927 3.578s-0.927 2.245-0.927 4.288c0 2.044-0.498 4.627-1.106 5.742-1.067 1.955-2.187 7.26-3.167 15.008-0.259 2.040-0.839 4.544-1.291 5.564s-1.045 3.524-1.317 5.564c-1.242 9.326-1.718 11.638-2.491 12.116-0.456 0.282-0.829 2.341-0.829 4.577s-0.417 4.322-0.927 4.637c-0.51 0.315-0.927 2.635-0.927 5.155s-0.377 4.582-0.838 4.582c-0.461 0-1.060 1.982-1.329 4.405-0.715 6.398-1.978 13.206-3.141 16.924-2.699 8.63-3.038 10.091-3.038 13.095 0 1.774-0.377 3.623-0.837 4.107s-1.087 2.863-1.392 5.286c-0.305 2.423-0.803 6.387-1.108 8.81s-0.93 4.801-1.392 5.286c-0.461 0.484-0.837 2.651-0.837 4.813s-0.417 4.191-0.927 4.506c-0.51 0.315-0.927 1.925-0.927 3.579s-0.377 3.402-0.837 3.887c-0.461 0.484-1.087 2.863-1.392 5.286s-0.807 6.387-1.117 8.81c-0.31 2.423-1.022 4.969-1.584 5.66s-1.336 3.403-1.719 6.028c-0.384 2.625-1.152 7.067-1.708 9.873s-1.242 6.668-1.526 8.584c-0.283 1.916-0.887 3.714-1.344 3.995s-0.829 2.341-0.829 4.577c0 2.235-0.417 4.322-0.927 4.637s-0.927 2.61-0.927 5.101c0 2.49-0.417 4.786-0.927 5.101s-0.927 2.401-0.927 4.637c0 2.235-0.373 4.295-0.829 4.577-0.791 0.489-1.356 3.284-2.546 12.58-0.293 2.296-0.993 4.738-1.555 5.428s-1.336 3.404-1.719 6.028c-0.384 2.625-1.156 7.067-1.716 9.873s-1.243 6.978-1.517 9.274c-0.274 2.296-0.876 4.57-1.336 5.054s-0.837 2.175-0.837 3.755c0 1.581-0.377 3.271-0.837 3.755s-1.067 2.759-1.348 5.054c-1.183 9.674-1.796 11.67-4.436 14.45-1.761 1.854-2.505 3.401-2.12 4.405 0.507 1.32-0.101 1.547-4.142 1.547-2.604 0-4.736-0.417-4.736-0.927zM196.801 377.538c2.428-1.91 3.071-4.274 4.423-16.26 1.687-14.965 4.762-34.661 6.154-39.412 1.382-4.721 2.659-6.24 17.13-20.401 27.581-26.99 42.143-40.803 43.018-40.803 0.469 0 6.922-5.839 14.339-12.977 32.562-31.333 37.722-36.172 38.575-36.172 0.498 0 6.115-5.255 12.483-11.677s13.038-12.625 14.824-13.785c1.785-1.159 8.228-6.963 14.317-12.898s11.522-10.79 12.072-10.79c0.55 0 5.365-4.38 10.7-9.733 9.014-9.045 9.7-9.99 9.7-13.373 0-5.246-2.363-7.498-7.87-7.498-2.888 0-4.8 0.507-5.614 1.488-0.679 0.818-2.087 1.872-3.127 2.342s-3.217 1.783-4.835 2.917c-1.618 1.135-5.093 3.315-7.722 4.845s-6.103 3.702-7.722 4.826c-1.618 1.124-4.647 2.876-6.732 3.895s-4.326 2.499-4.982 3.289c-0.656 0.791-1.767 1.437-2.47 1.437s-2.093 0.815-3.089 1.812c-0.997 0.996-3.684 2.665-5.971 3.707s-4.418 2.315-4.736 2.827c-0.317 0.513-2.361 1.745-4.541 2.738s-4.502 2.453-5.158 3.244c-0.656 0.791-1.716 1.437-2.356 1.437s-1.675 0.616-2.3 1.369c-0.625 0.752-3.389 2.434-6.141 3.737s-5.005 2.695-5.005 3.094c0 0.399-2.004 1.601-4.454 2.671s-5.005 2.608-5.678 3.419c-0.673 0.811-1.662 1.475-2.197 1.475s-1.774 0.726-2.754 1.612c-2.128 1.926-8.586 5.766-15.289 9.092-2.678 1.328-4.868 2.815-4.868 3.304s-0.73 1.163-1.623 1.499c-0.893 0.335-3.793 1.992-6.447 3.68s-5.21 3.071-5.683 3.071c-0.472 0-1.395 0.647-2.051 1.437s-2.934 2.231-5.063 3.2c-2.129 0.97-4.406 2.41-5.063 3.2s-1.716 1.437-2.357 1.437c-0.64 0-1.71 0.659-2.379 1.464s-3.263 2.578-5.768 3.941c-10.563 5.749-17.296 9.783-28.512 17.084-4.506 2.933-8.587 5.333-9.069 5.333s-1.411 0.643-2.065 1.431c-0.654 0.787-3.327 2.41-5.941 3.606s-5.312 2.847-5.994 3.67c-0.683 0.822-1.764 1.495-2.405 1.495s-1.701 0.647-2.357 1.437c-0.656 0.791-2.899 2.219-4.982 3.175-3.865 1.772-8.247 5.909-11.041 10.425-2.273 3.673-2.137 17.669 0.244 25.182 5.16 16.275 6.543 21.086 6.543 22.755 0 1.008 0.417 2.091 0.927 2.406s0.933 1.696 0.94 3.068c0.006 1.373 1.253 6.043 2.769 10.378s2.763 9.005 2.769 10.378c0.006 1.373 0.383 2.725 0.837 3.005s1.041 1.87 1.304 3.533c0.518 3.267 1.765 7.873 3.327 12.296 0.541 1.53 1.225 3.983 1.52 5.451s1.736 3.868 3.201 5.332c3.279 3.279 8.72 3.65 12.291 0.841z"></path>
</svg>
